%YAML 1.1
%TAG !u! tag:unity3d.com,2011:
--- !u!29 &1
OcclusionCullingSettings:
  m_ObjectHideFlags: 0
  serializedVersion: 2
  m_OcclusionBakeSettings:
    smallestOccluder: 5
    smallestHole: 0.25
    backfaceThreshold: 100
  m_SceneGUID: 00000000000000000000000000000000
  m_OcclusionCullingData: {fileID: 0}
--- !u!104 &2
RenderSettings:
  m_ObjectHideFlags: 0
  serializedVersion: 9
  m_Fog: 0
  m_FogColor: {r: 0.5, g: 0.5, b: 0.5, a: 1}
  m_FogMode: 3
  m_FogDensity: 0.01
  m_LinearFogStart: 0
  m_LinearFogEnd: 300
  m_AmbientSkyColor: {r: 0.212, g: 0.227, b: 0.259, a: 1}
  m_AmbientEquatorColor: {r: 0.114, g: 0.125, b: 0.133, a: 1}
  m_AmbientGroundColor: {r: 0.047, g: 0.043, b: 0.035, a: 1}
  m_AmbientIntensity: 1
  m_AmbientMode: 0
  m_SubtractiveShadowColor: {r: 0.42, g: 0.478, b: 0.627, a: 1}
  m_SkyboxMaterial: {fileID: 2100000, guid: 3b54ab90850c045908dfebfe425f301a, type: 2}
  m_HaloStrength: 0.5
  m_FlareStrength: 1
  m_FlareFadeSpeed: 3
  m_HaloTexture: {fileID: 0}
  m_SpotCookie: {fileID: 10001, guid: 0000000000000000e000000000000000, type: 0}
  m_DefaultReflectionMode: 0
  m_DefaultReflectionResolution: 128
  m_ReflectionBounces: 1
  m_ReflectionIntensity: 1
  m_CustomReflection: {fileID: 0}
  m_Sun: {fileID: 1824458277}
  m_IndirectSpecularColor: {r: 0.51584446, g: 0.64508665, b: 0.70784265, a: 1}
  m_UseRadianceAmbientProbe: 0
--- !u!157 &3
LightmapSettings:
  m_ObjectHideFlags: 0
  serializedVersion: 11
  m_GIWorkflowMode: 0
  m_GISettings:
    serializedVersion: 2
    m_BounceScale: 1
    m_IndirectOutputScale: 1
    m_AlbedoBoost: 1
    m_TemporalCoherenceThreshold: 1
    m_EnvironmentLightingMode: 0
    m_EnableBakedLightmaps: 1
    m_EnableRealtimeLightmaps: 1
  m_LightmapEditorSettings:
    serializedVersion: 10
    m_Resolution: 2
    m_BakeResolution: 40
    m_AtlasSize: 1024
    m_AO: 0
    m_AOMaxDistance: 1
    m_CompAOExponent: 0
    m_CompAOExponentDirect: 0
    m_Padding: 2
    m_LightmapParameters: {fileID: 0}
    m_LightmapsBakeMode: 1
    m_TextureCompression: 1
    m_FinalGather: 0
    m_FinalGatherFiltering: 1
    m_FinalGatherRayCount: 1024
    m_ReflectionCompression: 2
    m_MixedBakeMode: 1
    m_BakeBackend: 0
    m_PVRSampling: 1
    m_PVRDirectSampleCount: 32
    m_PVRSampleCount: 500
    m_PVRBounces: 2
    m_PVRFilterTypeDirect: 0
    m_PVRFilterTypeIndirect: 0
    m_PVRFilterTypeAO: 0
    m_PVRFilteringMode: 0
    m_PVRCulling: 1
    m_PVRFilteringGaussRadiusDirect: 1
    m_PVRFilteringGaussRadiusIndirect: 5
    m_PVRFilteringGaussRadiusAO: 2
    m_PVRFilteringAtrousPositionSigmaDirect: 0.5
    m_PVRFilteringAtrousPositionSigmaIndirect: 2
    m_PVRFilteringAtrousPositionSigmaAO: 1
    m_ShowResolutionOverlay: 1
  m_LightingDataAsset: {fileID: 0}
  m_UseShadowmask: 0
--- !u!196 &4
NavMeshSettings:
  serializedVersion: 2
  m_ObjectHideFlags: 0
  m_BuildSettings:
    serializedVersion: 2
    agentTypeID: 0
    agentRadius: 0.5
    agentHeight: 2
    agentSlope: 45
    agentClimb: 0.4
    ledgeDropHeight: 0
    maxJumpAcrossDistance: 0
    minRegionArea: 2
    manualCellSize: 0
    cellSize: 0.16666667
    manualTileSize: 0
    tileSize: 256
    accuratePlacement: 0
    debug:
      m_Flags: 0
  m_NavMeshData: {fileID: 0}
--- !u!1001 &72228895
Prefab:
  m_ObjectHideFlags: 0
  serializedVersion: 2
  m_Modification:
    m_TransformParent: {fileID: 346160000}
    m_Modifications:
    - target: {fileID: 400000, guid: 87b70b92195974d9dacc05039e07b8cf, type: 2}
      propertyPath: m_LocalPosition.x
      value: .0599999987
      objectReference: {fileID: 0}
    - target: {fileID: 400000, guid: 87b70b92195974d9dacc05039e07b8cf, type: 2}
      propertyPath: m_LocalPosition.y
      value: .00800000038
      objectReference: {fileID: 0}
    - target: {fileID: 400000, guid: 87b70b92195974d9dacc05039e07b8cf, type: 2}
      propertyPath: m_LocalPosition.z
      value: 0
      objectReference: {fileID: 0}
    - target: {fileID: 400000, guid: 87b70b92195974d9dacc05039e07b8cf, type: 2}
      propertyPath: m_LocalRotation.x
      value: 0
      objectReference: {fileID: 0}
    - target: {fileID: 400000, guid: 87b70b92195974d9dacc05039e07b8cf, type: 2}
      propertyPath: m_LocalRotation.y
      value: 0
      objectReference: {fileID: 0}
    - target: {fileID: 400000, guid: 87b70b92195974d9dacc05039e07b8cf, type: 2}
      propertyPath: m_LocalRotation.z
      value: .446197838
      objectReference: {fileID: 0}
    - target: {fileID: 400000, guid: 87b70b92195974d9dacc05039e07b8cf, type: 2}
      propertyPath: m_LocalRotation.w
      value: .894934356
      objectReference: {fileID: 0}
    - target: {fileID: 400000, guid: 87b70b92195974d9dacc05039e07b8cf, type: 2}
      propertyPath: m_RootOrder
      value: 3
      objectReference: {fileID: 0}
    - target: {fileID: 2348764, guid: 87b70b92195974d9dacc05039e07b8cf, type: 2}
      propertyPath: m_Materials.Array.data[0]
      value: 
      objectReference: {fileID: 2100000, guid: 0a58941bbd115a7011005aba44295342, type: 2}
    m_RemovedComponents: []
  m_ParentPrefab: {fileID: 100100000, guid: 87b70b92195974d9dacc05039e07b8cf, type: 2}
  m_IsPrefabParent: 0
--- !u!1 &137320701
GameObject:
  m_ObjectHideFlags: 0
  m_PrefabParentObject: {fileID: 0}
  m_PrefabInternal: {fileID: 0}
  serializedVersion: 5
  m_Component:
  - component: {fileID: 137320702}
  - component: {fileID: 137320705}
  - component: {fileID: 137320704}
  - component: {fileID: 137320703}
  - component: {fileID: 137320706}
  m_Layer: 0
  m_Name: FalloffCamera
  m_TagString: Untagged
  m_Icon: {fileID: 0}
  m_NavMeshLayer: 0
  m_StaticEditorFlags: 0
  m_IsActive: 1
--- !u!4 &137320702
Transform:
  m_ObjectHideFlags: 0
  m_PrefabParentObject: {fileID: 0}
  m_PrefabInternal: {fileID: 0}
  m_GameObject: {fileID: 137320701}
  m_LocalRotation: {x: 0, y: 0, z: 0, w: 1}
  m_LocalPosition: {x: 0, y: 0, z: 0}
  m_LocalScale: {x: 1, y: 1, z: 1}
  m_Children: []
  m_Father: {fileID: 1214707426}
  m_RootOrder: 2
  m_LocalEulerAnglesHint: {x: 0, y: 0, z: 0}
--- !u!114 &137320703
MonoBehaviour:
  m_ObjectHideFlags: 0
  m_PrefabParentObject: {fileID: 0}
  m_PrefabInternal: {fileID: 0}
  m_GameObject: {fileID: 137320701}
  m_Enabled: 1
  m_EditorHideFlags: 0
  m_Script: {fileID: 11500000, guid: c880d555e4968234c860946eae519142, type: 3}
  m_Name: 
  m_EditorClassIdentifier: 
  m_mainCameraRef: {fileID: 1214707425}
  SubRenderShader: {fileID: 4800000, guid: b04c14d941cd0b343b337153f82792d7, type: 3}
--- !u!124 &137320704
Behaviour:
  m_ObjectHideFlags: 0
  m_PrefabParentObject: {fileID: 0}
  m_PrefabInternal: {fileID: 0}
  m_GameObject: {fileID: 137320701}
  m_Enabled: 1
--- !u!20 &137320705
Camera:
  m_ObjectHideFlags: 0
  m_PrefabParentObject: {fileID: 0}
  m_PrefabInternal: {fileID: 0}
  m_GameObject: {fileID: 137320701}
  m_Enabled: 0
  serializedVersion: 2
  m_ClearFlags: 1
  m_BackGroundColor: {r: 0.19215687, g: 0.3019608, b: 0.4745098, a: 0}
  m_NormalizedViewPortRect:
    serializedVersion: 2
    x: 0
    y: 0
    width: 1
    height: 1
  near clip plane: 2
  far clip plane: 7
  field of view: 20
  orthographic: 0
  orthographic size: 5
  m_Depth: 0
  m_CullingMask:
    serializedVersion: 2
    m_Bits: 4294967295
  m_RenderingPath: -1
  m_TargetTexture: {fileID: 8400000, guid: f408698e6b264674c8ca9b4c146dc09b, type: 2}
  m_TargetDisplay: 0
  m_TargetEye: 3
  m_HDR: 1
  m_AllowMSAA: 1
  m_AllowDynamicResolution: 0
  m_ForceIntoRT: 0
  m_OcclusionCulling: 1
  m_StereoConvergence: 10
  m_StereoSeparation: 0.022
--- !u!114 &137320706
MonoBehaviour:
  m_ObjectHideFlags: 0
  m_PrefabParentObject: {fileID: 0}
  m_PrefabInternal: {fileID: 0}
  m_GameObject: {fileID: 137320701}
  m_Enabled: 0
  m_EditorHideFlags: 0
  m_Script: {fileID: 11500000, guid: 1a2b05e623aeb104da40528e60f1ca6c, type: 3}
  m_Name: 
  m_EditorClassIdentifier: 
  shader: {fileID: 4800000, guid: 4b1be4515956c5a4a94e2f945acaa2df, type: 3}
  BlurRadius: 1
  downSample: 2
  iteration: 1
--- !u!1 &140478799
GameObject:
  m_ObjectHideFlags: 0
  m_PrefabParentObject: {fileID: 0}
  m_PrefabInternal: {fileID: 0}
  serializedVersion: 5
  m_Component:
  - component: {fileID: 140478801}
  - component: {fileID: 140478800}
  m_Layer: 0
  m_Name: Reflection Probe
  m_TagString: Untagged
  m_Icon: {fileID: 0}
  m_NavMeshLayer: 0
  m_StaticEditorFlags: 0
  m_IsActive: 1
--- !u!215 &140478800
ReflectionProbe:
  m_ObjectHideFlags: 0
  m_PrefabParentObject: {fileID: 0}
  m_PrefabInternal: {fileID: 0}
  m_GameObject: {fileID: 140478799}
  m_Enabled: 1
  serializedVersion: 2
  m_Type: 0
  m_Mode: 1
  m_RefreshMode: 1
  m_TimeSlicingMode: 0
  m_Resolution: 128
  m_UpdateFrequency: 0
  m_BoxSize: {x: 100, y: 100, z: 100}
  m_BoxOffset: {x: 0, y: 0, z: 0}
  m_NearClip: 0.3
  m_FarClip: 1000
  m_ShadowDistance: 100
  m_ClearFlags: 1
  m_BackGroundColor: {r: 0.19215687, g: 0.3019608, b: 0.4745098, a: 0}
  m_CullingMask:
    serializedVersion: 2
    m_Bits: 0
  m_IntensityMultiplier: 1
  m_BlendDistance: 1
  m_HDR: 1
  m_BoxProjection: 0
  m_RenderDynamicObjects: 0
  m_UseOcclusionCulling: 1
  m_Importance: 1
  m_CustomBakedTexture: {fileID: 0}
--- !u!4 &140478801
Transform:
  m_ObjectHideFlags: 0
  m_PrefabParentObject: {fileID: 0}
  m_PrefabInternal: {fileID: 0}
  m_GameObject: {fileID: 140478799}
  m_LocalRotation: {x: 0, y: 0, z: 0, w: 1}
  m_LocalPosition: {x: 2, y: 2, z: 0}
  m_LocalScale: {x: 1, y: 1, z: 1}
  m_Children: []
  m_Father: {fileID: 0}
  m_RootOrder: 2
  m_LocalEulerAnglesHint: {x: 0, y: 0, z: 0}
--- !u!1001 &146980484
Prefab:
  m_ObjectHideFlags: 0
  serializedVersion: 2
  m_Modification:
    m_TransformParent: {fileID: 346160000}
    m_Modifications:
    - target: {fileID: 400000, guid: 5f22e3f6398904100923beb02c73de13, type: 2}
      propertyPath: m_LocalPosition.x
      value: -.0199999996
      objectReference: {fileID: 0}
    - target: {fileID: 400000, guid: 5f22e3f6398904100923beb02c73de13, type: 2}
      propertyPath: m_LocalPosition.y
      value: .00400000019
      objectReference: {fileID: 0}
    - target: {fileID: 400000, guid: 5f22e3f6398904100923beb02c73de13, type: 2}
      propertyPath: m_LocalPosition.z
      value: 0
      objectReference: {fileID: 0}
    - target: {fileID: 400000, guid: 5f22e3f6398904100923beb02c73de13, type: 2}
      propertyPath: m_LocalRotation.x
      value: 0
      objectReference: {fileID: 0}
    - target: {fileID: 400000, guid: 5f22e3f6398904100923beb02c73de13, type: 2}
      propertyPath: m_LocalRotation.y
      value: 0
      objectReference: {fileID: 0}
    - target: {fileID: 400000, guid: 5f22e3f6398904100923beb02c73de13, type: 2}
      propertyPath: m_LocalRotation.z
      value: 0
      objectReference: {fileID: 0}
    - target: {fileID: 400000, guid: 5f22e3f6398904100923beb02c73de13, type: 2}
      propertyPath: m_LocalRotation.w
      value: 1
      objectReference: {fileID: 0}
    - target: {fileID: 400000, guid: 5f22e3f6398904100923beb02c73de13, type: 2}
      propertyPath: m_RootOrder
      value: 2
      objectReference: {fileID: 0}
    - target: {fileID: 2356856, guid: 5f22e3f6398904100923beb02c73de13, type: 2}
      propertyPath: m_Materials.Array.data[0]
      value: 
      objectReference: {fileID: 2100000, guid: 0a58941bbd115a7011005aba44295342, type: 2}
    m_RemovedComponents: []
  m_ParentPrefab: {fileID: 100100000, guid: 5f22e3f6398904100923beb02c73de13, type: 2}
  m_IsPrefabParent: 0
--- !u!4 &154806035 stripped
Transform:
  m_PrefabParentObject: {fileID: 400000, guid: 08563ec9bc5724f43a79b8a80c275cd3, type: 2}
  m_PrefabInternal: {fileID: 325319426}
--- !u!4 &166459659 stripped
Transform:
  m_PrefabParentObject: {fileID: 400000, guid: 08563ec9bc5724f43a79b8a80c275cd3, type: 2}
  m_PrefabInternal: {fileID: 348221167}
--- !u!4 &186199565 stripped
Transform:
  m_PrefabParentObject: {fileID: 400000, guid: 5f22e3f6398904100923beb02c73de13, type: 2}
  m_PrefabInternal: {fileID: 146980484}
--- !u!1001 &214583906
Prefab:
  m_ObjectHideFlags: 0
  serializedVersion: 2
  m_Modification:
    m_TransformParent: {fileID: 714061927}
    m_Modifications:
    - target: {fileID: 400000, guid: 5f22e3f6398904100923beb02c73de13, type: 2}
      propertyPath: m_LocalPosition.x
      value: -.0199999996
      objectReference: {fileID: 0}
    - target: {fileID: 400000, guid: 5f22e3f6398904100923beb02c73de13, type: 2}
      propertyPath: m_LocalPosition.y
      value: .00400000019
      objectReference: {fileID: 0}
    - target: {fileID: 400000, guid: 5f22e3f6398904100923beb02c73de13, type: 2}
      propertyPath: m_LocalPosition.z
      value: 0
      objectReference: {fileID: 0}
    - target: {fileID: 400000, guid: 5f22e3f6398904100923beb02c73de13, type: 2}
      propertyPath: m_LocalRotation.x
      value: 0
      objectReference: {fileID: 0}
    - target: {fileID: 400000, guid: 5f22e3f6398904100923beb02c73de13, type: 2}
      propertyPath: m_LocalRotation.y
      value: 0
      objectReference: {fileID: 0}
    - target: {fileID: 400000, guid: 5f22e3f6398904100923beb02c73de13, type: 2}
      propertyPath: m_LocalRotation.z
      value: 0
      objectReference: {fileID: 0}
    - target: {fileID: 400000, guid: 5f22e3f6398904100923beb02c73de13, type: 2}
      propertyPath: m_LocalRotation.w
      value: 1
      objectReference: {fileID: 0}
    - target: {fileID: 400000, guid: 5f22e3f6398904100923beb02c73de13, type: 2}
      propertyPath: m_RootOrder
      value: 2
      objectReference: {fileID: 0}
    - target: {fileID: 2356856, guid: 5f22e3f6398904100923beb02c73de13, type: 2}
      propertyPath: m_Materials.Array.data[0]
      value: 
      objectReference: {fileID: 2100000, guid: 6981dccdbd114a7011005aba44295342, type: 2}
    m_RemovedComponents: []
  m_ParentPrefab: {fileID: 100100000, guid: 5f22e3f6398904100923beb02c73de13, type: 2}
  m_IsPrefabParent: 0
--- !u!1 &278043509
GameObject:
  m_ObjectHideFlags: 0
  m_PrefabParentObject: {fileID: 0}
  m_PrefabInternal: {fileID: 0}
  serializedVersion: 5
  m_Component:
  - component: {fileID: 278043510}
  - component: {fileID: 278043513}
  - component: {fileID: 278043512}
  - component: {fileID: 278043511}
  m_Layer: 0
  m_Name: ScatCamera
  m_TagString: Untagged
  m_Icon: {fileID: 0}
  m_NavMeshLayer: 0
  m_StaticEditorFlags: 0
  m_IsActive: 1
--- !u!4 &278043510
Transform:
  m_ObjectHideFlags: 0
  m_PrefabParentObject: {fileID: 0}
  m_PrefabInternal: {fileID: 0}
  m_GameObject: {fileID: 278043509}
  m_LocalRotation: {x: 0, y: 0, z: 0, w: 1}
  m_LocalPosition: {x: 0, y: 0, z: 0}
  m_LocalScale: {x: 1, y: 1, z: 1}
  m_Children: []
  m_Father: {fileID: 1214707426}
  m_RootOrder: 1
  m_LocalEulerAnglesHint: {x: 0, y: 0, z: 0}
--- !u!114 &278043511
MonoBehaviour:
  m_ObjectHideFlags: 0
  m_PrefabParentObject: {fileID: 0}
  m_PrefabInternal: {fileID: 0}
  m_GameObject: {fileID: 278043509}
  m_Enabled: 1
  m_EditorHideFlags: 0
  m_Script: {fileID: 11500000, guid: c880d555e4968234c860946eae519142, type: 3}
  m_Name: 
  m_EditorClassIdentifier: 
  m_mainCameraRef: {fileID: 1214707425}
  SubRenderShader: {fileID: 4800000, guid: ad012e9aad5887745bb222c51b956bf1, type: 3}
--- !u!124 &278043512
Behaviour:
  m_ObjectHideFlags: 0
  m_PrefabParentObject: {fileID: 0}
  m_PrefabInternal: {fileID: 0}
  m_GameObject: {fileID: 278043509}
  m_Enabled: 1
--- !u!20 &278043513
Camera:
  m_ObjectHideFlags: 0
  m_PrefabParentObject: {fileID: 0}
  m_PrefabInternal: {fileID: 0}
  m_GameObject: {fileID: 278043509}
  m_Enabled: 0
  serializedVersion: 2
  m_ClearFlags: 1
  m_BackGroundColor: {r: 0.19215687, g: 0.3019608, b: 0.4745098, a: 0}
  m_NormalizedViewPortRect:
    serializedVersion: 2
    x: 0
    y: 0
    width: 1
    height: 1
  near clip plane: 2
  far clip plane: 7
  field of view: 20
  orthographic: 0
  orthographic size: 5
  m_Depth: 0
  m_CullingMask:
    serializedVersion: 2
    m_Bits: 4294967295
  m_RenderingPath: -1
  m_TargetTexture: {fileID: 8400000, guid: 0851bc4094dc4e243a34683a3be64a52, type: 2}
  m_TargetDisplay: 0
  m_TargetEye: 3
  m_HDR: 1
  m_AllowMSAA: 1
  m_AllowDynamicResolution: 0
  m_ForceIntoRT: 0
  m_OcclusionCulling: 1
  m_StereoConvergence: 10
  m_StereoSeparation: 0.022
--- !u!1001 &300019780
Prefab:
  m_ObjectHideFlags: 0
  serializedVersion: 2
  m_Modification:
    m_TransformParent: {fileID: 714061927}
    m_Modifications:
    - target: {fileID: 400000, guid: 87b70b92195974d9dacc05039e07b8cf, type: 2}
      propertyPath: m_LocalPosition.x
      value: .0599999987
      objectReference: {fileID: 0}
    - target: {fileID: 400000, guid: 87b70b92195974d9dacc05039e07b8cf, type: 2}
      propertyPath: m_LocalPosition.y
      value: .00800000038
      objectReference: {fileID: 0}
    - target: {fileID: 400000, guid: 87b70b92195974d9dacc05039e07b8cf, type: 2}
      propertyPath: m_LocalPosition.z
      value: 0
      objectReference: {fileID: 0}
    - target: {fileID: 400000, guid: 87b70b92195974d9dacc05039e07b8cf, type: 2}
      propertyPath: m_LocalRotation.x
      value: 0
      objectReference: {fileID: 0}
    - target: {fileID: 400000, guid: 87b70b92195974d9dacc05039e07b8cf, type: 2}
      propertyPath: m_LocalRotation.y
      value: 0
      objectReference: {fileID: 0}
    - target: {fileID: 400000, guid: 87b70b92195974d9dacc05039e07b8cf, type: 2}
      propertyPath: m_LocalRotation.z
      value: .446197838
      objectReference: {fileID: 0}
    - target: {fileID: 400000, guid: 87b70b92195974d9dacc05039e07b8cf, type: 2}
      propertyPath: m_LocalRotation.w
      value: .894934356
      objectReference: {fileID: 0}
    - target: {fileID: 400000, guid: 87b70b92195974d9dacc05039e07b8cf, type: 2}
      propertyPath: m_RootOrder
      value: 3
      objectReference: {fileID: 0}
    - target: {fileID: 2348764, guid: 87b70b92195974d9dacc05039e07b8cf, type: 2}
      propertyPath: m_Materials.Array.data[0]
      value: 
      objectReference: {fileID: 2100000, guid: 6981dccdbd114a7011005aba44295342, type: 2}
    m_RemovedComponents: []
  m_ParentPrefab: {fileID: 100100000, guid: 87b70b92195974d9dacc05039e07b8cf, type: 2}
  m_IsPrefabParent: 0
--- !u!1001 &325319426
Prefab:
  m_ObjectHideFlags: 0
  serializedVersion: 2
  m_Modification:
    m_TransformParent: {fileID: 714061927}
    m_Modifications:
    - target: {fileID: 400000, guid: 08563ec9bc5724f43a79b8a80c275cd3, type: 2}
      propertyPath: m_LocalPosition.x
      value: .0199999996
      objectReference: {fileID: 0}
    - target: {fileID: 400000, guid: 08563ec9bc5724f43a79b8a80c275cd3, type: 2}
      propertyPath: m_LocalPosition.y
      value: .00749999983
      objectReference: {fileID: 0}
    - target: {fileID: 400000, guid: 08563ec9bc5724f43a79b8a80c275cd3, type: 2}
      propertyPath: m_LocalPosition.z
      value: 0
      objectReference: {fileID: 0}
    - target: {fileID: 400000, guid: 08563ec9bc5724f43a79b8a80c275cd3, type: 2}
      propertyPath: m_LocalRotation.x
      value: 0
      objectReference: {fileID: 0}
    - target: {fileID: 400000, guid: 08563ec9bc5724f43a79b8a80c275cd3, type: 2}
      propertyPath: m_LocalRotation.y
      value: 0
      objectReference: {fileID: 0}
    - target: {fileID: 400000, guid: 08563ec9bc5724f43a79b8a80c275cd3, type: 2}
      propertyPath: m_LocalRotation.z
      value: 0
      objectReference: {fileID: 0}
    - target: {fileID: 400000, guid: 08563ec9bc5724f43a79b8a80c275cd3, type: 2}
      propertyPath: m_LocalRotation.w
      value: 1
      objectReference: {fileID: 0}
    - target: {fileID: 400000, guid: 08563ec9bc5724f43a79b8a80c275cd3, type: 2}
      propertyPath: m_RootOrder
      value: 1
      objectReference: {fileID: 0}
    - target: {fileID: 2330452, guid: 08563ec9bc5724f43a79b8a80c275cd3, type: 2}
      propertyPath: m_Materials.Array.data[0]
      value: 
      objectReference: {fileID: 2100000, guid: 6981dccdbd114a7011005aba44295342, type: 2}
    m_RemovedComponents: []
  m_ParentPrefab: {fileID: 100100000, guid: 08563ec9bc5724f43a79b8a80c275cd3, type: 2}
  m_IsPrefabParent: 0
--- !u!1 &346159999
GameObject:
  m_ObjectHideFlags: 0
  m_PrefabParentObject: {fileID: 0}
  m_PrefabInternal: {fileID: 0}
  serializedVersion: 5
  m_Component:
  - component: {fileID: 346160000}
  m_Layer: 0
  m_Name: Turquoise Gems
  m_TagString: Untagged
  m_Icon: {fileID: 0}
  m_NavMeshLayer: 0
  m_StaticEditorFlags: 0
  m_IsActive: 1
--- !u!4 &346160000
Transform:
  m_ObjectHideFlags: 0
  m_PrefabParentObject: {fileID: 0}
  m_PrefabInternal: {fileID: 0}
  m_GameObject: {fileID: 346159999}
  m_LocalRotation: {x: 0, y: -0.10452847, z: 0, w: 0.9945219}
  m_LocalPosition: {x: 0, y: 0, z: 0.06}
  m_LocalScale: {x: 1, y: 1, z: 1}
  m_Children:
  - {fileID: 392548755}
  - {fileID: 166459659}
  - {fileID: 186199565}
  - {fileID: 1987203040}
  m_Father: {fileID: 906471583}
  m_RootOrder: 3
  m_LocalEulerAnglesHint: {x: 0, y: 0, z: 0}
--- !u!1001 &348221167
Prefab:
  m_ObjectHideFlags: 0
  serializedVersion: 2
  m_Modification:
    m_TransformParent: {fileID: 346160000}
    m_Modifications:
    - target: {fileID: 400000, guid: 08563ec9bc5724f43a79b8a80c275cd3, type: 2}
      propertyPath: m_LocalPosition.x
      value: .0199999996
      objectReference: {fileID: 0}
    - target: {fileID: 400000, guid: 08563ec9bc5724f43a79b8a80c275cd3, type: 2}
      propertyPath: m_LocalPosition.y
      value: .00749999983
      objectReference: {fileID: 0}
    - target: {fileID: 400000, guid: 08563ec9bc5724f43a79b8a80c275cd3, type: 2}
      propertyPath: m_LocalPosition.z
      value: 0
      objectReference: {fileID: 0}
    - target: {fileID: 400000, guid: 08563ec9bc5724f43a79b8a80c275cd3, type: 2}
      propertyPath: m_LocalRotation.x
      value: 0
      objectReference: {fileID: 0}
    - target: {fileID: 400000, guid: 08563ec9bc5724f43a79b8a80c275cd3, type: 2}
      propertyPath: m_LocalRotation.y
      value: 0
      objectReference: {fileID: 0}
    - target: {fileID: 400000, guid: 08563ec9bc5724f43a79b8a80c275cd3, type: 2}
      propertyPath: m_LocalRotation.z
      value: 0
      objectReference: {fileID: 0}
    - target: {fileID: 400000, guid: 08563ec9bc5724f43a79b8a80c275cd3, type: 2}
      propertyPath: m_LocalRotation.w
      value: 1
      objectReference: {fileID: 0}
    - target: {fileID: 400000, guid: 08563ec9bc5724f43a79b8a80c275cd3, type: 2}
      propertyPath: m_RootOrder
      value: 1
      objectReference: {fileID: 0}
    - target: {fileID: 2330452, guid: 08563ec9bc5724f43a79b8a80c275cd3, type: 2}
      propertyPath: m_Materials.Array.data[0]
      value: 
      objectReference: {fileID: 2100000, guid: 0a58941bbd115a7011005aba44295342, type: 2}
    m_RemovedComponents: []
  m_ParentPrefab: {fileID: 100100000, guid: 08563ec9bc5724f43a79b8a80c275cd3, type: 2}
  m_IsPrefabParent: 0
--- !u!4 &392548755 stripped
Transform:
  m_PrefabParentObject: {fileID: 400002, guid: d89ce53ebd114a7011005aba44295342, type: 2}
  m_PrefabInternal: {fileID: 1692039704}
--- !u!1 &425286867
GameObject:
  m_ObjectHideFlags: 0
  m_PrefabParentObject: {fileID: 0}
  m_PrefabInternal: {fileID: 0}
  serializedVersion: 5
  m_Component:
  - component: {fileID: 425286868}
  - component: {fileID: 425286871}
  - component: {fileID: 425286870}
  - component: {fileID: 425286872}
  - component: {fileID: 425286873}
  - component: {fileID: 425286869}
  m_Layer: 0
  m_Name: BlurCamera
  m_TagString: Untagged
  m_Icon: {fileID: 0}
  m_NavMeshLayer: 0
  m_StaticEditorFlags: 0
  m_IsActive: 1
--- !u!4 &425286868
Transform:
  m_ObjectHideFlags: 0
  m_PrefabParentObject: {fileID: 0}
  m_PrefabInternal: {fileID: 0}
  m_GameObject: {fileID: 425286867}
  m_LocalRotation: {x: 0, y: 0, z: 0, w: 1}
  m_LocalPosition: {x: 0, y: 0, z: 0}
  m_LocalScale: {x: 1, y: 1, z: 1}
  m_Children: []
  m_Father: {fileID: 1214707426}
  m_RootOrder: 0
  m_LocalEulerAnglesHint: {x: 0, y: 0, z: 0}
--- !u!114 &425286869
MonoBehaviour:
  m_ObjectHideFlags: 0
  m_PrefabParentObject: {fileID: 0}
  m_PrefabInternal: {fileID: 0}
  m_GameObject: {fileID: 425286867}
  m_Enabled: 1
  m_EditorHideFlags: 0
  m_Script: {fileID: 11500000, guid: 0031b0eabd814a04fa5409e6061fa9c2, type: 3}
  m_Name: 
  m_EditorClassIdentifier: 
  shader: {fileID: 4800000, guid: cc3785ef82b36e147b7fb830330a3a95, type: 3}
  MainCamera: {fileID: 1214707420}
--- !u!124 &425286870
Behaviour:
  m_ObjectHideFlags: 0
  m_PrefabParentObject: {fileID: 0}
  m_PrefabInternal: {fileID: 0}
  m_GameObject: {fileID: 425286867}
  m_Enabled: 1
--- !u!20 &425286871
Camera:
  m_ObjectHideFlags: 0
  m_PrefabParentObject: {fileID: 0}
  m_PrefabInternal: {fileID: 0}
  m_GameObject: {fileID: 425286867}
  m_Enabled: 1
  serializedVersion: 2
  m_ClearFlags: 1
  m_BackGroundColor: {r: 0.19215687, g: 0.3019608, b: 0.4745098, a: 0}
  m_NormalizedViewPortRect:
    serializedVersion: 2
    x: 0
    y: 0
    width: 1
    height: 1
  near clip plane: 2
  far clip plane: 7
  field of view: 20
  orthographic: 0
  orthographic size: 5
  m_Depth: 1
  m_CullingMask:
    serializedVersion: 2
    m_Bits: 4294967295
  m_RenderingPath: -1
  m_TargetTexture: {fileID: 8400000, guid: 12cf519c526bb994d8e52f72df2095c3, type: 2}
  m_TargetDisplay: 0
  m_TargetEye: 3
  m_HDR: 1
  m_AllowMSAA: 1
  m_AllowDynamicResolution: 0
  m_ForceIntoRT: 0
  m_OcclusionCulling: 1
  m_StereoConvergence: 10
  m_StereoSeparation: 0.022
--- !u!114 &425286872
MonoBehaviour:
  m_ObjectHideFlags: 0
  m_PrefabParentObject: {fileID: 0}
  m_PrefabInternal: {fileID: 0}
  m_GameObject: {fileID: 425286867}
  m_Enabled: 0
  m_EditorHideFlags: 0
  m_Script: {fileID: 11500000, guid: c880d555e4968234c860946eae519142, type: 3}
  m_Name: 
  m_EditorClassIdentifier: 
  m_mainCameraRef: {fileID: 1214707425}
  SubRenderShader: {fileID: 4800000, guid: cc3785ef82b36e147b7fb830330a3a95, type: 3}
--- !u!114 &425286873
MonoBehaviour:
  m_ObjectHideFlags: 0
  m_PrefabParentObject: {fileID: 0}
  m_PrefabInternal: {fileID: 0}
  m_GameObject: {fileID: 425286867}
  m_Enabled: 0
  m_EditorHideFlags: 0
  m_Script: {fileID: 11500000, guid: c880d555e4968234c860946eae519142, type: 3}
  m_Name: 
  m_EditorClassIdentifier: 
  m_mainCameraRef: {fileID: 1214707425}
  SubRenderShader: {fileID: 4800000, guid: b04c14d941cd0b343b337153f82792d7, type: 3}
--- !u!1001 &459662930
Prefab:
  m_ObjectHideFlags: 0
  serializedVersion: 2
  m_Modification:
    m_TransformParent: {fileID: 1973914807}
    m_Modifications:
    - target: {fileID: 400000, guid: 87b70b92195974d9dacc05039e07b8cf, type: 2}
      propertyPath: m_LocalPosition.x
      value: .0599999987
      objectReference: {fileID: 0}
    - target: {fileID: 400000, guid: 87b70b92195974d9dacc05039e07b8cf, type: 2}
      propertyPath: m_LocalPosition.y
      value: .00800000038
      objectReference: {fileID: 0}
    - target: {fileID: 400000, guid: 87b70b92195974d9dacc05039e07b8cf, type: 2}
      propertyPath: m_LocalPosition.z
      value: 0
      objectReference: {fileID: 0}
    - target: {fileID: 400000, guid: 87b70b92195974d9dacc05039e07b8cf, type: 2}
      propertyPath: m_LocalRotation.x
      value: 0
      objectReference: {fileID: 0}
    - target: {fileID: 400000, guid: 87b70b92195974d9dacc05039e07b8cf, type: 2}
      propertyPath: m_LocalRotation.y
      value: 0
      objectReference: {fileID: 0}
    - target: {fileID: 400000, guid: 87b70b92195974d9dacc05039e07b8cf, type: 2}
      propertyPath: m_LocalRotation.z
      value: .446197838
      objectReference: {fileID: 0}
    - target: {fileID: 400000, guid: 87b70b92195974d9dacc05039e07b8cf, type: 2}
      propertyPath: m_LocalRotation.w
      value: .894934356
      objectReference: {fileID: 0}
    - target: {fileID: 400000, guid: 87b70b92195974d9dacc05039e07b8cf, type: 2}
      propertyPath: m_RootOrder
      value: 3
      objectReference: {fileID: 0}
    - target: {fileID: 2348764, guid: 87b70b92195974d9dacc05039e07b8cf, type: 2}
      propertyPath: m_Materials.Array.data[0]
      value: 
      objectReference: {fileID: 2100000, guid: c2bc5d37bd115a7011005aba44295342, type: 2}
    m_RemovedComponents: []
  m_ParentPrefab: {fileID: 100100000, guid: 87b70b92195974d9dacc05039e07b8cf, type: 2}
  m_IsPrefabParent: 0
--- !u!1001 &610163148
Prefab:
  m_ObjectHideFlags: 0
  serializedVersion: 2
  m_Modification:
    m_TransformParent: {fileID: 714061927}
    m_Modifications:
    - target: {fileID: 400002, guid: d89ce53ebd114a7011005aba44295342, type: 2}
      propertyPath: m_LocalPosition.x
      value: -.0599999987
      objectReference: {fileID: 0}
    - target: {fileID: 400002, guid: d89ce53ebd114a7011005aba44295342, type: 2}
      propertyPath: m_LocalPosition.y
      value: .00300000003
      objectReference: {fileID: 0}
    - target: {fileID: 400002, guid: d89ce53ebd114a7011005aba44295342, type: 2}
      propertyPath: m_LocalPosition.z
      value: 0
      objectReference: {fileID: 0}
    - target: {fileID: 400002, guid: d89ce53ebd114a7011005aba44295342, type: 2}
      propertyPath: m_LocalRotation.x
      value: 0
      objectReference: {fileID: 0}
    - target: {fileID: 400002, guid: d89ce53ebd114a7011005aba44295342, type: 2}
      propertyPath: m_LocalRotation.y
      value: 0
      objectReference: {fileID: 0}
    - target: {fileID: 400002, guid: d89ce53ebd114a7011005aba44295342, type: 2}
      propertyPath: m_LocalRotation.z
      value: 0
      objectReference: {fileID: 0}
    - target: {fileID: 400002, guid: d89ce53ebd114a7011005aba44295342, type: 2}
      propertyPath: m_LocalRotation.w
      value: 1
      objectReference: {fileID: 0}
    - target: {fileID: 400002, guid: d89ce53ebd114a7011005aba44295342, type: 2}
      propertyPath: m_RootOrder
      value: 0
      objectReference: {fileID: 0}
    - target: {fileID: 400002, guid: d89ce53ebd114a7011005aba44295342, type: 2}
      propertyPath: m_LocalScale.x
      value: .800000012
      objectReference: {fileID: 0}
    - target: {fileID: 400002, guid: d89ce53ebd114a7011005aba44295342, type: 2}
      propertyPath: m_LocalScale.y
      value: .800000012
      objectReference: {fileID: 0}
    - target: {fileID: 400002, guid: d89ce53ebd114a7011005aba44295342, type: 2}
      propertyPath: m_LocalScale.z
      value: .800000012
      objectReference: {fileID: 0}
    - target: {fileID: 2386458, guid: d89ce53ebd114a7011005aba44295342, type: 2}
      propertyPath: m_Materials.Array.data[0]
      value: 
      objectReference: {fileID: 2100000, guid: 6981dccdbd114a7011005aba44295342, type: 2}
    m_RemovedComponents: []
  m_ParentPrefab: {fileID: 100100000, guid: d89ce53ebd114a7011005aba44295342, type: 2}
  m_IsPrefabParent: 0
--- !u!4 &668694838 stripped
Transform:
  m_PrefabParentObject: {fileID: 400002, guid: d89ce53ebd114a7011005aba44295342, type: 2}
  m_PrefabInternal: {fileID: 610163148}
--- !u!1 &714061926
GameObject:
  m_ObjectHideFlags: 0
  m_PrefabParentObject: {fileID: 0}
  m_PrefabInternal: {fileID: 0}
  serializedVersion: 5
  m_Component:
  - component: {fileID: 714061927}
  m_Layer: 0
  m_Name: Purple Gems
  m_TagString: Untagged
  m_Icon: {fileID: 0}
  m_NavMeshLayer: 0
  m_StaticEditorFlags: 0
  m_IsActive: 1
--- !u!4 &714061927
Transform:
  m_ObjectHideFlags: 0
  m_PrefabParentObject: {fileID: 0}
  m_PrefabInternal: {fileID: 0}
  m_GameObject: {fileID: 714061926}
  m_LocalRotation: {x: 0, y: -0.0348995, z: 0, w: 0.99939084}
  m_LocalPosition: {x: 0, y: 0, z: 0.02}
  m_LocalScale: {x: 1, y: 1, z: 1}
  m_Children:
  - {fileID: 668694838}
  - {fileID: 154806035}
  - {fileID: 1993858701}
  - {fileID: 1142046415}
  m_Father: {fileID: 906471583}
  m_RootOrder: 2
  m_LocalEulerAnglesHint: {x: 0, y: 0, z: 0}
--- !u!1001 &755453565
Prefab:
  m_ObjectHideFlags: 0
  serializedVersion: 2
  m_Modification:
    m_TransformParent: {fileID: 1973914807}
    m_Modifications:
    - target: {fileID: 400002, guid: d89ce53ebd114a7011005aba44295342, type: 2}
      propertyPath: m_LocalPosition.x
      value: -.0599999987
      objectReference: {fileID: 0}
    - target: {fileID: 400002, guid: d89ce53ebd114a7011005aba44295342, type: 2}
      propertyPath: m_LocalPosition.y
      value: .00300000003
      objectReference: {fileID: 0}
    - target: {fileID: 400002, guid: d89ce53ebd114a7011005aba44295342, type: 2}
      propertyPath: m_LocalPosition.z
      value: 0
      objectReference: {fileID: 0}
    - target: {fileID: 400002, guid: d89ce53ebd114a7011005aba44295342, type: 2}
      propertyPath: m_LocalRotation.x
      value: 0
      objectReference: {fileID: 0}
    - target: {fileID: 400002, guid: d89ce53ebd114a7011005aba44295342, type: 2}
      propertyPath: m_LocalRotation.y
      value: 0
      objectReference: {fileID: 0}
    - target: {fileID: 400002, guid: d89ce53ebd114a7011005aba44295342, type: 2}
      propertyPath: m_LocalRotation.z
      value: 0
      objectReference: {fileID: 0}
    - target: {fileID: 400002, guid: d89ce53ebd114a7011005aba44295342, type: 2}
      propertyPath: m_LocalRotation.w
      value: 1
      objectReference: {fileID: 0}
    - target: {fileID: 400002, guid: d89ce53ebd114a7011005aba44295342, type: 2}
      propertyPath: m_RootOrder
      value: 0
      objectReference: {fileID: 0}
    - target: {fileID: 400002, guid: d89ce53ebd114a7011005aba44295342, type: 2}
      propertyPath: m_LocalScale.x
      value: .800000012
      objectReference: {fileID: 0}
    - target: {fileID: 400002, guid: d89ce53ebd114a7011005aba44295342, type: 2}
      propertyPath: m_LocalScale.y
      value: .800000012
      objectReference: {fileID: 0}
    - target: {fileID: 400002, guid: d89ce53ebd114a7011005aba44295342, type: 2}
      propertyPath: m_LocalScale.z
      value: .800000012
      objectReference: {fileID: 0}
    - target: {fileID: 2386458, guid: d89ce53ebd114a7011005aba44295342, type: 2}
      propertyPath: m_Materials.Array.data[0]
      value: 
      objectReference: {fileID: 2100000, guid: c2bc5d37bd115a7011005aba44295342, type: 2}
    m_RemovedComponents: []
  m_ParentPrefab: {fileID: 100100000, guid: d89ce53ebd114a7011005aba44295342, type: 2}
  m_IsPrefabParent: 0
--- !u!4 &770102367 stripped
Transform:
  m_PrefabParentObject: {fileID: 400002, guid: d89ce53ebd114a7011005aba44295342, type: 2}
  m_PrefabInternal: {fileID: 1041617445}
--- !u!1 &906471582
GameObject:
  m_ObjectHideFlags: 0
  m_PrefabParentObject: {fileID: 0}
  m_PrefabInternal: {fileID: 0}
  serializedVersion: 5
  m_Component:
  - component: {fileID: 906471583}
  m_Layer: 0
  m_Name: Gems
  m_TagString: Untagged
  m_Icon: {fileID: 0}
  m_NavMeshLayer: 0
  m_StaticEditorFlags: 0
  m_IsActive: 1
--- !u!4 &906471583
Transform:
  m_ObjectHideFlags: 0
  m_PrefabParentObject: {fileID: 0}
  m_PrefabInternal: {fileID: 0}
  m_GameObject: {fileID: 906471582}
  m_LocalRotation: {x: 0, y: 0, z: 0, w: 1}
  m_LocalPosition: {x: -0.05, y: 0.05, z: 0}
  m_LocalScale: {x: 10, y: 10, z: 10}
  m_Children:
  - {fileID: 2121243077}
  - {fileID: 1973914807}
  - {fileID: 714061927}
  - {fileID: 346160000}
  m_Father: {fileID: 0}
  m_RootOrder: 4
  m_LocalEulerAnglesHint: {x: 0, y: 0, z: 0}
--- !u!1001 &983826131
Prefab:
  m_ObjectHideFlags: 0
  serializedVersion: 2
  m_Modification:
    m_TransformParent: {fileID: 2121243077}
    m_Modifications:
    - target: {fileID: 400000, guid: 87b70b92195974d9dacc05039e07b8cf, type: 2}
      propertyPath: m_LocalPosition.x
      value: .0599999987
      objectReference: {fileID: 0}
    - target: {fileID: 400000, guid: 87b70b92195974d9dacc05039e07b8cf, type: 2}
      propertyPath: m_LocalPosition.y
      value: .00800000038
      objectReference: {fileID: 0}
    - target: {fileID: 400000, guid: 87b70b92195974d9dacc05039e07b8cf, type: 2}
      propertyPath: m_LocalPosition.z
      value: 0
      objectReference: {fileID: 0}
    - target: {fileID: 400000, guid: 87b70b92195974d9dacc05039e07b8cf, type: 2}
      propertyPath: m_LocalRotation.x
      value: 0
      objectReference: {fileID: 0}
    - target: {fileID: 400000, guid: 87b70b92195974d9dacc05039e07b8cf, type: 2}
      propertyPath: m_LocalRotation.y
      value: 0
      objectReference: {fileID: 0}
    - target: {fileID: 400000, guid: 87b70b92195974d9dacc05039e07b8cf, type: 2}
      propertyPath: m_LocalRotation.z
      value: .446197838
      objectReference: {fileID: 0}
    - target: {fileID: 400000, guid: 87b70b92195974d9dacc05039e07b8cf, type: 2}
      propertyPath: m_LocalRotation.w
      value: .894934356
      objectReference: {fileID: 0}
    - target: {fileID: 400000, guid: 87b70b92195974d9dacc05039e07b8cf, type: 2}
      propertyPath: m_RootOrder
      value: 3
      objectReference: {fileID: 0}
    m_RemovedComponents: []
  m_ParentPrefab: {fileID: 100100000, guid: 87b70b92195974d9dacc05039e07b8cf, type: 2}
  m_IsPrefabParent: 0
--- !u!1001 &1024668930
Prefab:
  m_ObjectHideFlags: 0
  serializedVersion: 2
  m_Modification:
    m_TransformParent: {fileID: 1973914807}
    m_Modifications:
    - target: {fileID: 400000, guid: 5f22e3f6398904100923beb02c73de13, type: 2}
      propertyPath: m_LocalPosition.x
      value: -.0199999996
      objectReference: {fileID: 0}
    - target: {fileID: 400000, guid: 5f22e3f6398904100923beb02c73de13, type: 2}
      propertyPath: m_LocalPosition.y
      value: .00400000019
      objectReference: {fileID: 0}
    - target: {fileID: 400000, guid: 5f22e3f6398904100923beb02c73de13, type: 2}
      propertyPath: m_LocalPosition.z
      value: 0
      objectReference: {fileID: 0}
    - target: {fileID: 400000, guid: 5f22e3f6398904100923beb02c73de13, type: 2}
      propertyPath: m_LocalRotation.x
      value: 0
      objectReference: {fileID: 0}
    - target: {fileID: 400000, guid: 5f22e3f6398904100923beb02c73de13, type: 2}
      propertyPath: m_LocalRotation.y
      value: 0
      objectReference: {fileID: 0}
    - target: {fileID: 400000, guid: 5f22e3f6398904100923beb02c73de13, type: 2}
      propertyPath: m_LocalRotation.z
      value: 0
      objectReference: {fileID: 0}
    - target: {fileID: 400000, guid: 5f22e3f6398904100923beb02c73de13, type: 2}
      propertyPath: m_LocalRotation.w
      value: 1
      objectReference: {fileID: 0}
    - target: {fileID: 400000, guid: 5f22e3f6398904100923beb02c73de13, type: 2}
      propertyPath: m_RootOrder
      value: 2
      objectReference: {fileID: 0}
    - target: {fileID: 2356856, guid: 5f22e3f6398904100923beb02c73de13, type: 2}
      propertyPath: m_Materials.Array.data[0]
      value: 
      objectReference: {fileID: 2100000, guid: c2bc5d37bd115a7011005aba44295342, type: 2}
    m_RemovedComponents: []
  m_ParentPrefab: {fileID: 100100000, guid: 5f22e3f6398904100923beb02c73de13, type: 2}
  m_IsPrefabParent: 0
--- !u!1001 &1041617445
Prefab:
  m_ObjectHideFlags: 0
  serializedVersion: 2
  m_Modification:
    m_TransformParent: {fileID: 2121243077}
    m_Modifications:
    - target: {fileID: 400002, guid: d89ce53ebd114a7011005aba44295342, type: 2}
      propertyPath: m_LocalPosition.x
      value: -.0599999987
      objectReference: {fileID: 0}
    - target: {fileID: 400002, guid: d89ce53ebd114a7011005aba44295342, type: 2}
      propertyPath: m_LocalPosition.y
      value: .00300000003
      objectReference: {fileID: 0}
    - target: {fileID: 400002, guid: d89ce53ebd114a7011005aba44295342, type: 2}
      propertyPath: m_LocalPosition.z
      value: 0
      objectReference: {fileID: 0}
    - target: {fileID: 400002, guid: d89ce53ebd114a7011005aba44295342, type: 2}
      propertyPath: m_LocalRotation.x
      value: 0
      objectReference: {fileID: 0}
    - target: {fileID: 400002, guid: d89ce53ebd114a7011005aba44295342, type: 2}
      propertyPath: m_LocalRotation.y
      value: 0
      objectReference: {fileID: 0}
    - target: {fileID: 400002, guid: d89ce53ebd114a7011005aba44295342, type: 2}
      propertyPath: m_LocalRotation.z
      value: 0
      objectReference: {fileID: 0}
    - target: {fileID: 400002, guid: d89ce53ebd114a7011005aba44295342, type: 2}
      propertyPath: m_LocalRotation.w
      value: 1
      objectReference: {fileID: 0}
    - target: {fileID: 400002, guid: d89ce53ebd114a7011005aba44295342, type: 2}
      propertyPath: m_RootOrder
      value: 0
      objectReference: {fileID: 0}
    - target: {fileID: 400002, guid: d89ce53ebd114a7011005aba44295342, type: 2}
      propertyPath: m_LocalScale.x
      value: .800000012
      objectReference: {fileID: 0}
    - target: {fileID: 400002, guid: d89ce53ebd114a7011005aba44295342, type: 2}
      propertyPath: m_LocalScale.y
      value: .800000012
      objectReference: {fileID: 0}
    - target: {fileID: 400002, guid: d89ce53ebd114a7011005aba44295342, type: 2}
      propertyPath: m_LocalScale.z
      value: .800000012
      objectReference: {fileID: 0}
    m_RemovedComponents: []
  m_ParentPrefab: {fileID: 100100000, guid: d89ce53ebd114a7011005aba44295342, type: 2}
  m_IsPrefabParent: 0
--- !u!4 &1121215305 stripped
Transform:
  m_PrefabParentObject: {fileID: 400000, guid: 5f22e3f6398904100923beb02c73de13, type: 2}
  m_PrefabInternal: {fileID: 1692678847}
--- !u!4 &1142046415 stripped
Transform:
  m_PrefabParentObject: {fileID: 400000, guid: 87b70b92195974d9dacc05039e07b8cf, type: 2}
  m_PrefabInternal: {fileID: 300019780}
--- !u!1 &1214707420
GameObject:
  m_ObjectHideFlags: 0
  m_PrefabParentObject: {fileID: 0}
  m_PrefabInternal: {fileID: 0}
  serializedVersion: 5
  m_Component:
  - component: {fileID: 1214707426}
  - component: {fileID: 1214707425}
  - component: {fileID: 1214707424}
  - component: {fileID: 1214707423}
  - component: {fileID: 1214707422}
  - component: {fileID: 1214707421}
  - component: {fileID: 1214707428}
  - component: {fileID: 1214707427}
  - component: {fileID: 1214707429}
  m_Layer: 0
  m_Name: Main Camera
  m_TagString: MainCamera
  m_Icon: {fileID: 0}
  m_NavMeshLayer: 0
  m_StaticEditorFlags: 0
  m_IsActive: 1
--- !u!114 &1214707421
MonoBehaviour:
  m_ObjectHideFlags: 0
  m_PrefabParentObject: {fileID: 0}
  m_PrefabInternal: {fileID: 0}
  m_GameObject: {fileID: 1214707420}
  m_Enabled: 0
  m_EditorHideFlags: 0
  m_Script: {fileID: 11500000, guid: 0735508b0e607489898e2fb8d27caee8, type: 3}
  m_Name: 
  m_EditorClassIdentifier: 
  degreesPerSecond: 10
--- !u!81 &1214707422
AudioListener:
  m_ObjectHideFlags: 0
  m_PrefabParentObject: {fileID: 0}
  m_PrefabInternal: {fileID: 0}
  m_GameObject: {fileID: 1214707420}
  m_Enabled: 1
--- !u!124 &1214707423
Behaviour:
  m_ObjectHideFlags: 0
  m_PrefabParentObject: {fileID: 0}
  m_PrefabInternal: {fileID: 0}
  m_GameObject: {fileID: 1214707420}
  m_Enabled: 1
--- !u!92 &1214707424
Behaviour:
  m_ObjectHideFlags: 0
  m_PrefabParentObject: {fileID: 0}
  m_PrefabInternal: {fileID: 0}
  m_GameObject: {fileID: 1214707420}
  m_Enabled: 1
--- !u!20 &1214707425
Camera:
  m_ObjectHideFlags: 0
  m_PrefabParentObject: {fileID: 0}
  m_PrefabInternal: {fileID: 0}
  m_GameObject: {fileID: 1214707420}
  m_Enabled: 1
  serializedVersion: 2
  m_ClearFlags: 1
  m_BackGroundColor: {r: 0.19215687, g: 0.3019608, b: 0.4745098, a: 0.019607844}
  m_NormalizedViewPortRect:
    serializedVersion: 2
    x: 0
    y: 0
    width: 1
    height: 1
  near clip plane: 2
  far clip plane: 7
  field of view: 20
  orthographic: 0
  orthographic size: 5
  m_Depth: 2
  m_CullingMask:
    serializedVersion: 2
    m_Bits: 4294967295
  m_RenderingPath: -1
  m_TargetTexture: {fileID: 0}
  m_TargetDisplay: 0
  m_TargetEye: 3
  m_HDR: 0
  m_AllowMSAA: 1
  m_AllowDynamicResolution: 0
  m_ForceIntoRT: 0
  m_OcclusionCulling: 1
  m_StereoConvergence: 10
  m_StereoSeparation: 0.022
--- !u!4 &1214707426
Transform:
  m_ObjectHideFlags: 0
  m_PrefabParentObject: {fileID: 0}
  m_PrefabInternal: {fileID: 0}
  m_GameObject: {fileID: 1214707420}
  m_LocalRotation: {x: 0.19996414, y: 0.37361234, z: -0.082827866, w: 0.90197986}
  m_LocalPosition: {x: -2.5634255, y: 1.6904731, z: -2.5634253}
  m_LocalScale: {x: 1, y: 1, z: 1}
  m_Children:
  - {fileID: 425286868}
  - {fileID: 278043510}
  - {fileID: 137320702}
  - {fileID: 2075794595}
  m_Father: {fileID: 0}
  m_RootOrder: 0
  m_LocalEulerAnglesHint: {x: 0, y: 0, z: 0}
--- !u!114 &1214707427
MonoBehaviour:
  m_ObjectHideFlags: 0
  m_PrefabParentObject: {fileID: 0}
  m_PrefabInternal: {fileID: 0}
  m_GameObject: {fileID: 1214707420}
  m_Enabled: 1
  m_EditorHideFlags: 0
  m_Script: {fileID: 11500000, guid: 905ad2e30f78a814683a38beaa0fa2fa, type: 3}
  m_Name: 
  m_EditorClassIdentifier: 
  m_rt:
  - {fileID: 8400000, guid: f408698e6b264674c8ca9b4c146dc09b, type: 2}
  - {fileID: 8400000, guid: a7be23cb35798884ca16c1e3aff367e8, type: 2}
  - {fileID: 8400000, guid: 0851bc4094dc4e243a34683a3be64a52, type: 2}
  - {fileID: 8400000, guid: 12cf519c526bb994d8e52f72df2095c3, type: 2}
--- !u!114 &1214707428
MonoBehaviour:
  m_ObjectHideFlags: 0
  m_PrefabParentObject: {fileID: 0}
  m_PrefabInternal: {fileID: 0}
  m_GameObject: {fileID: 1214707420}
  m_Enabled: 1
  m_EditorHideFlags: 0
  m_Script: {fileID: 11500000, guid: 9c5bdaa6c87969842ad54b23376cbef9, type: 3}
  m_Name: 
  m_EditorClassIdentifier: 
  SSS_mainhandle: {fileID: 2100000, guid: 37c4293e2d21479418dc491314d032c1, type: 2}
--- !u!114 &1214707429
MonoBehaviour:
  m_ObjectHideFlags: 0
  m_PrefabParentObject: {fileID: 0}
  m_PrefabInternal: {fileID: 0}
  m_GameObject: {fileID: 1214707420}
  m_Enabled: 1
  m_EditorHideFlags: 0
  m_Script: {fileID: 11500000, guid: ba3c11aa555bd2e49b8f38cff453ff7e, type: 3}
  m_Name: 
  m_EditorClassIdentifier: 
  SSS_Scale: 0.372
  SSS_SampleSet: 1
--- !u!1 &1411955502
GameObject:
  m_ObjectHideFlags: 0
  m_PrefabParentObject: {fileID: 0}
  m_PrefabInternal: {fileID: 0}
  serializedVersion: 5
  m_Component:
  - component: {fileID: 1411955504}
  - component: {fileID: 1411955503}
  m_Layer: 0
  m_Name: Light Pivot
  m_TagString: Untagged
  m_Icon: {fileID: 0}
  m_NavMeshLayer: 0
  m_StaticEditorFlags: 0
  m_IsActive: 1
--- !u!114 &1411955503
MonoBehaviour:
  m_ObjectHideFlags: 0
  m_PrefabParentObject: {fileID: 0}
  m_PrefabInternal: {fileID: 0}
  m_GameObject: {fileID: 1411955502}
  m_Enabled: 0
  m_EditorHideFlags: 0
  m_Script: {fileID: 11500000, guid: 18ff8bad9ca6f4f29ab5526c0893ae7b, type: 3}
  m_Name: 
  m_EditorClassIdentifier: 
  lightSource: {fileID: 1824458277}
  minAngle: -15
  cycleDuration: 36
--- !u!4 &1411955504
Transform:
  m_ObjectHideFlags: 0
  m_PrefabParentObject: {fileID: 0}
  m_PrefabInternal: {fileID: 0}
  m_GameObject: {fileID: 1411955502}
  m_LocalRotation: {x: 0.17860618, y: 0.82139385, z: -0.3830223, w: 0.38302213}
  m_LocalPosition: {x: 0, y: 0, z: 0}
  m_LocalScale: {x: 1, y: 1, z: 1}
  m_Children:
  - {fileID: 1824458278}
  m_Father: {fileID: 0}
  m_RootOrder: 1
  m_LocalEulerAnglesHint: {x: 0, y: 0, z: 0}
--- !u!4 &1470649142 stripped
Transform:
  m_PrefabParentObject: {fileID: 400000, guid: 87b70b92195974d9dacc05039e07b8cf, type: 2}
  m_PrefabInternal: {fileID: 459662930}
--- !u!1001 &1586566723
Prefab:
  m_ObjectHideFlags: 0
  serializedVersion: 2
  m_Modification:
    m_TransformParent: {fileID: 1973914807}
    m_Modifications:
    - target: {fileID: 400000, guid: 08563ec9bc5724f43a79b8a80c275cd3, type: 2}
      propertyPath: m_LocalPosition.x
      value: .0199999996
      objectReference: {fileID: 0}
    - target: {fileID: 400000, guid: 08563ec9bc5724f43a79b8a80c275cd3, type: 2}
      propertyPath: m_LocalPosition.y
      value: .00749999983
      objectReference: {fileID: 0}
    - target: {fileID: 400000, guid: 08563ec9bc5724f43a79b8a80c275cd3, type: 2}
      propertyPath: m_LocalPosition.z
      value: 0
      objectReference: {fileID: 0}
    - target: {fileID: 400000, guid: 08563ec9bc5724f43a79b8a80c275cd3, type: 2}
      propertyPath: m_LocalRotation.x
      value: 0
      objectReference: {fileID: 0}
    - target: {fileID: 400000, guid: 08563ec9bc5724f43a79b8a80c275cd3, type: 2}
      propertyPath: m_LocalRotation.y
      value: 0
      objectReference: {fileID: 0}
    - target: {fileID: 400000, guid: 08563ec9bc5724f43a79b8a80c275cd3, type: 2}
      propertyPath: m_LocalRotation.z
      value: 0
      objectReference: {fileID: 0}
    - target: {fileID: 400000, guid: 08563ec9bc5724f43a79b8a80c275cd3, type: 2}
      propertyPath: m_LocalRotation.w
      value: 1
      objectReference: {fileID: 0}
    - target: {fileID: 400000, guid: 08563ec9bc5724f43a79b8a80c275cd3, type: 2}
      propertyPath: m_RootOrder
      value: 1
      objectReference: {fileID: 0}
    - target: {fileID: 2330452, guid: 08563ec9bc5724f43a79b8a80c275cd3, type: 2}
      propertyPath: m_Materials.Array.data[0]
      value: 
      objectReference: {fileID: 2100000, guid: c2bc5d37bd115a7011005aba44295342, type: 2}
    m_RemovedComponents: []
  m_ParentPrefab: {fileID: 100100000, guid: 08563ec9bc5724f43a79b8a80c275cd3, type: 2}
  m_IsPrefabParent: 0
--- !u!1 &1592311474
GameObject:
  m_ObjectHideFlags: 0
  m_PrefabParentObject: {fileID: 0}
  m_PrefabInternal: {fileID: 0}
  serializedVersion: 5
  m_Component:
  - component: {fileID: 1592311476}
  m_Layer: 0
  m_Name: GameObject
  m_TagString: Untagged
  m_Icon: {fileID: 0}
  m_NavMeshLayer: 0
  m_StaticEditorFlags: 0
  m_IsActive: 1
--- !u!4 &1592311476
Transform:
  m_ObjectHideFlags: 0
  m_PrefabParentObject: {fileID: 0}
  m_PrefabInternal: {fileID: 0}
  m_GameObject: {fileID: 1592311474}
  m_LocalRotation: {x: 0, y: 0, z: 0, w: 1}
  m_LocalPosition: {x: -2.5634255, y: 1.6904731, z: -2.5634253}
  m_LocalScale: {x: 1, y: 1, z: 1}
  m_Children: []
  m_Father: {fileID: 0}
  m_RootOrder: 5
  m_LocalEulerAnglesHint: {x: 0, y: 0, z: 0}
--- !u!1001 &1692039704
Prefab:
  m_ObjectHideFlags: 0
  serializedVersion: 2
  m_Modification:
    m_TransformParent: {fileID: 346160000}
    m_Modifications:
    - target: {fileID: 400002, guid: d89ce53ebd114a7011005aba44295342, type: 2}
      propertyPath: m_LocalPosition.x
      value: -.0599999987
      objectReference: {fileID: 0}
    - target: {fileID: 400002, guid: d89ce53ebd114a7011005aba44295342, type: 2}
      propertyPath: m_LocalPosition.y
      value: .00300000003
      objectReference: {fileID: 0}
    - target: {fileID: 400002, guid: d89ce53ebd114a7011005aba44295342, type: 2}
      propertyPath: m_LocalPosition.z
      value: 0
      objectReference: {fileID: 0}
    - target: {fileID: 400002, guid: d89ce53ebd114a7011005aba44295342, type: 2}
      propertyPath: m_LocalRotation.x
      value: 0
      objectReference: {fileID: 0}
    - target: {fileID: 400002, guid: d89ce53ebd114a7011005aba44295342, type: 2}
      propertyPath: m_LocalRotation.y
      value: 0
      objectReference: {fileID: 0}
    - target: {fileID: 400002, guid: d89ce53ebd114a7011005aba44295342, type: 2}
      propertyPath: m_LocalRotation.z
      value: 0
      objectReference: {fileID: 0}
    - target: {fileID: 400002, guid: d89ce53ebd114a7011005aba44295342, type: 2}
      propertyPath: m_LocalRotation.w
      value: 1
      objectReference: {fileID: 0}
    - target: {fileID: 400002, guid: d89ce53ebd114a7011005aba44295342, type: 2}
      propertyPath: m_RootOrder
      value: 0
      objectReference: {fileID: 0}
    - target: {fileID: 400002, guid: d89ce53ebd114a7011005aba44295342, type: 2}
      propertyPath: m_LocalScale.x
      value: .800000012
      objectReference: {fileID: 0}
    - target: {fileID: 400002, guid: d89ce53ebd114a7011005aba44295342, type: 2}
      propertyPath: m_LocalScale.y
      value: .800000012
      objectReference: {fileID: 0}
    - target: {fileID: 400002, guid: d89ce53ebd114a7011005aba44295342, type: 2}
      propertyPath: m_LocalScale.z
      value: .800000012
      objectReference: {fileID: 0}
    - target: {fileID: 2386458, guid: d89ce53ebd114a7011005aba44295342, type: 2}
      propertyPath: m_Materials.Array.data[0]
      value: 
      objectReference: {fileID: 2100000, guid: 0a58941bbd115a7011005aba44295342, type: 2}
    m_RemovedComponents: []
  m_ParentPrefab: {fileID: 100100000, guid: d89ce53ebd114a7011005aba44295342, type: 2}
  m_IsPrefabParent: 0
--- !u!1001 &1692678847
Prefab:
  m_ObjectHideFlags: 0
  serializedVersion: 2
  m_Modification:
    m_TransformParent: {fileID: 2121243077}
    m_Modifications:
    - target: {fileID: 400000, guid: 5f22e3f6398904100923beb02c73de13, type: 2}
      propertyPath: m_LocalPosition.x
      value: -.0199999996
      objectReference: {fileID: 0}
    - target: {fileID: 400000, guid: 5f22e3f6398904100923beb02c73de13, type: 2}
      propertyPath: m_LocalPosition.y
      value: .00400000019
      objectReference: {fileID: 0}
    - target: {fileID: 400000, guid: 5f22e3f6398904100923beb02c73de13, type: 2}
      propertyPath: m_LocalPosition.z
      value: 0
      objectReference: {fileID: 0}
    - target: {fileID: 400000, guid: 5f22e3f6398904100923beb02c73de13, type: 2}
      propertyPath: m_LocalRotation.x
      value: 0
      objectReference: {fileID: 0}
    - target: {fileID: 400000, guid: 5f22e3f6398904100923beb02c73de13, type: 2}
      propertyPath: m_LocalRotation.y
      value: 0
      objectReference: {fileID: 0}
    - target: {fileID: 400000, guid: 5f22e3f6398904100923beb02c73de13, type: 2}
      propertyPath: m_LocalRotation.z
      value: 0
      objectReference: {fileID: 0}
    - target: {fileID: 400000, guid: 5f22e3f6398904100923beb02c73de13, type: 2}
      propertyPath: m_LocalRotation.w
      value: 1
      objectReference: {fileID: 0}
    - target: {fileID: 400000, guid: 5f22e3f6398904100923beb02c73de13, type: 2}
      propertyPath: m_RootOrder
      value: 2
      objectReference: {fileID: 0}
    m_RemovedComponents: []
  m_ParentPrefab: {fileID: 100100000, guid: 5f22e3f6398904100923beb02c73de13, type: 2}
  m_IsPrefabParent: 0
--- !u!4 &1704731600 stripped
Transform:
  m_PrefabParentObject: {fileID: 400000, guid: 5f22e3f6398904100923beb02c73de13, type: 2}
  m_PrefabInternal: {fileID: 1024668930}
--- !u!1 &1748472055
GameObject:
  m_ObjectHideFlags: 0
  m_PrefabParentObject: {fileID: 0}
  m_PrefabInternal: {fileID: 0}
  serializedVersion: 5
  m_Component:
  - component: {fileID: 1748472058}
  - component: {fileID: 1748472057}
  - component: {fileID: 1748472056}
  - component: {fileID: 1748472059}
  m_Layer: 0
  m_Name: Plate
  m_TagString: Untagged
  m_Icon: {fileID: 0}
  m_NavMeshLayer: 0
  m_StaticEditorFlags: 0
  m_IsActive: 1
--- !u!23 &1748472056
MeshRenderer:
  m_ObjectHideFlags: 0
  m_PrefabParentObject: {fileID: 0}
  m_PrefabInternal: {fileID: 0}
  m_GameObject: {fileID: 1748472055}
  m_Enabled: 1
  m_CastShadows: 1
  m_ReceiveShadows: 1
  m_DynamicOccludee: 1
  m_MotionVectors: 1
  m_LightProbeUsage: 1
  m_ReflectionProbeUsage: 1
  m_RenderingLayerMask: 4294967295
  m_Materials:
  - {fileID: 2100000, guid: b73aea060c4fc40deae77f9ddd8c0cb8, type: 2}
  m_StaticBatchInfo:
    firstSubMesh: 0
    subMeshCount: 0
  m_StaticBatchRoot: {fileID: 0}
  m_ProbeAnchor: {fileID: 0}
  m_LightProbeVolumeOverride: {fileID: 0}
  m_ScaleInLightmap: 1
  m_PreserveUVs: 1
  m_IgnoreNormalsForChartDetection: 0
  m_ImportantGI: 0
  m_StitchLightmapSeams: 0
  m_SelectedEditorRenderState: 3
  m_MinimumChartSize: 4
  m_AutoUVMaxDistance: 0.5
  m_AutoUVMaxAngle: 89
  m_LightmapParameters: {fileID: 0}
  m_SortingLayerID: 0
  m_SortingLayer: 0
  m_SortingOrder: 0
--- !u!33 &1748472057
MeshFilter:
  m_ObjectHideFlags: 0
  m_PrefabParentObject: {fileID: 0}
  m_PrefabInternal: {fileID: 0}
  m_GameObject: {fileID: 1748472055}
  m_Mesh: {fileID: 10206, guid: 0000000000000000e000000000000000, type: 0}
--- !u!4 &1748472058
Transform:
  m_ObjectHideFlags: 0
  m_PrefabParentObject: {fileID: 0}
  m_PrefabInternal: {fileID: 0}
  m_GameObject: {fileID: 1748472055}
  m_LocalRotation: {x: 0, y: 0, z: 0, w: 1}
  m_LocalPosition: {x: 0, y: 0.025, z: 0}
  m_LocalScale: {x: 8, y: 0.025, z: 8}
  m_Children: []
  m_Father: {fileID: 0}
  m_RootOrder: 3
  m_LocalEulerAnglesHint: {x: 0, y: 0, z: 0}
--- !u!65 &1748472059
BoxCollider:
  m_ObjectHideFlags: 0
  m_PrefabParentObject: {fileID: 0}
  m_PrefabInternal: {fileID: 0}
  m_GameObject: {fileID: 1748472055}
  m_Material: {fileID: 0}
  m_IsTrigger: 0
  m_Enabled: 1
  serializedVersion: 2
  m_Size: {x: 1.0000001, y: 2, z: 1.0000002}
  m_Center: {x: 0, y: 0, z: 0}
--- !u!4 &1751427596 stripped
Transform:
  m_PrefabParentObject: {fileID: 400000, guid: 08563ec9bc5724f43a79b8a80c275cd3, type: 2}
  m_PrefabInternal: {fileID: 1586566723}
--- !u!1001 &1758688970
Prefab:
  m_ObjectHideFlags: 0
  serializedVersion: 2
  m_Modification:
    m_TransformParent: {fileID: 2121243077}
    m_Modifications:
    - target: {fileID: 400000, guid: 08563ec9bc5724f43a79b8a80c275cd3, type: 2}
      propertyPath: m_LocalPosition.x
      value: .0199999996
      objectReference: {fileID: 0}
    - target: {fileID: 400000, guid: 08563ec9bc5724f43a79b8a80c275cd3, type: 2}
      propertyPath: m_LocalPosition.y
      value: .00749999983
      objectReference: {fileID: 0}
    - target: {fileID: 400000, guid: 08563ec9bc5724f43a79b8a80c275cd3, type: 2}
      propertyPath: m_LocalPosition.z
      value: 0
      objectReference: {fileID: 0}
    - target: {fileID: 400000, guid: 08563ec9bc5724f43a79b8a80c275cd3, type: 2}
      propertyPath: m_LocalRotation.x
      value: 0
      objectReference: {fileID: 0}
    - target: {fileID: 400000, guid: 08563ec9bc5724f43a79b8a80c275cd3, type: 2}
      propertyPath: m_LocalRotation.y
      value: 0
      objectReference: {fileID: 0}
    - target: {fileID: 400000, guid: 08563ec9bc5724f43a79b8a80c275cd3, type: 2}
      propertyPath: m_LocalRotation.z
      value: 0
      objectReference: {fileID: 0}
    - target: {fileID: 400000, guid: 08563ec9bc5724f43a79b8a80c275cd3, type: 2}
      propertyPath: m_LocalRotation.w
      value: 1
      objectReference: {fileID: 0}
    - target: {fileID: 400000, guid: 08563ec9bc5724f43a79b8a80c275cd3, type: 2}
      propertyPath: m_RootOrder
      value: 1
      objectReference: {fileID: 0}
    m_RemovedComponents: []
  m_ParentPrefab: {fileID: 100100000, guid: 08563ec9bc5724f43a79b8a80c275cd3, type: 2}
  m_IsPrefabParent: 0
--- !u!4 &1808485576 stripped
Transform:
  m_PrefabParentObject: {fileID: 400000, guid: 87b70b92195974d9dacc05039e07b8cf, type: 2}
  m_PrefabInternal: {fileID: 983826131}
--- !u!1 &1824458276
GameObject:
  m_ObjectHideFlags: 0
  m_PrefabParentObject: {fileID: 0}
  m_PrefabInternal: {fileID: 0}
  serializedVersion: 5
  m_Component:
  - component: {fileID: 1824458278}
  - component: {fileID: 1824458277}
  m_Layer: 0
  m_Name: Spotlight
  m_TagString: Untagged
  m_Icon: {fileID: 0}
  m_NavMeshLayer: 0
  m_StaticEditorFlags: 0
  m_IsActive: 1
--- !u!108 &1824458277
Light:
  m_ObjectHideFlags: 0
  m_PrefabParentObject: {fileID: 0}
  m_PrefabInternal: {fileID: 0}
  m_GameObject: {fileID: 1824458276}
  m_Enabled: 1
  serializedVersion: 8
  m_Type: 0
  m_Color: {r: 1, g: 0.95686275, b: 0.8392157, a: 1}
  m_Intensity: 3
  m_Range: 20
  m_SpotAngle: 30
  m_CookieSize: 10
  m_Shadows:
    m_Type: 2
    m_Resolution: -1
    m_CustomResolution: -1
    m_Strength: 1
    m_Bias: 0.05
    m_NormalBias: 0.4
    m_NearPlane: 0.2
  m_Cookie: {fileID: 0}
  m_DrawHalo: 0
  m_Flare: {fileID: 0}
  m_RenderMode: 0
  m_CullingMask:
    serializedVersion: 2
    m_Bits: 4294967295
  m_Lightmapping: 4
  m_AreaSize: {x: 1, y: 1}
  m_BounceIntensity: 1
  m_ColorTemperature: 6570
  m_UseColorTemperature: 0
  m_ShadowRadius: 0
  m_ShadowAngle: 0
--- !u!4 &1824458278
Transform:
  m_ObjectHideFlags: 0
  m_PrefabParentObject: {fileID: 0}
  m_PrefabInternal: {fileID: 0}
  m_GameObject: {fileID: 1824458276}
  m_LocalRotation: {x: 0, y: 0, z: 0, w: 1}
  m_LocalPosition: {x: 0, y: 0, z: -4}
  m_LocalScale: {x: 1, y: 1, z: 1}
  m_Children: []
  m_Father: {fileID: 1411955504}
  m_RootOrder: 0
  m_LocalEulerAnglesHint: {x: 0, y: 0, z: 0}
--- !u!4 &1828286968 stripped
Transform:
  m_PrefabParentObject: {fileID: 400002, guid: d89ce53ebd114a7011005aba44295342, type: 2}
  m_PrefabInternal: {fileID: 755453565}
--- !u!1 &1973914806
GameObject:
  m_ObjectHideFlags: 0
  m_PrefabParentObject: {fileID: 0}
  m_PrefabInternal: {fileID: 0}
  serializedVersion: 5
  m_Component:
  - component: {fileID: 1973914807}
  m_Layer: 0
  m_Name: Lavender Gems
  m_TagString: Untagged
  m_Icon: {fileID: 0}
  m_NavMeshLayer: 0
  m_StaticEditorFlags: 0
  m_IsActive: 1
--- !u!4 &1973914807
Transform:
  m_ObjectHideFlags: 0
  m_PrefabParentObject: {fileID: 0}
  m_PrefabInternal: {fileID: 0}
  m_GameObject: {fileID: 1973914806}
  m_LocalRotation: {x: 0, y: 0.0348995, z: 0, w: 0.99939084}
  m_LocalPosition: {x: 0, y: 0, z: -0.02}
  m_LocalScale: {x: 1, y: 1, z: 1}
  m_Children:
  - {fileID: 1828286968}
  - {fileID: 1751427596}
  - {fileID: 1704731600}
  - {fileID: 1470649142}
  m_Father: {fileID: 906471583}
  m_RootOrder: 1
  m_LocalEulerAnglesHint: {x: 0, y: 0, z: 0}
--- !u!4 &1987203040 stripped
Transform:
  m_PrefabParentObject: {fileID: 400000, guid: 87b70b92195974d9dacc05039e07b8cf, type: 2}
  m_PrefabInternal: {fileID: 72228895}
--- !u!4 &1993858701 stripped
Transform:
  m_PrefabParentObject: {fileID: 400000, guid: 5f22e3f6398904100923beb02c73de13, type: 2}
  m_PrefabInternal: {fileID: 214583906}
--- !u!4 &2038584608 stripped
Transform:
  m_PrefabParentObject: {fileID: 400000, guid: 08563ec9bc5724f43a79b8a80c275cd3, type: 2}
  m_PrefabInternal: {fileID: 1758688970}
--- !u!1 &2075794594
GameObject:
  m_ObjectHideFlags: 0
  m_PrefabParentObject: {fileID: 0}
  m_PrefabInternal: {fileID: 0}
  serializedVersion: 5
  m_Component:
  - component: {fileID: 2075794595}
  - component: {fileID: 2075794598}
  - component: {fileID: 2075794597}
  - component: {fileID: 2075794596}
  m_Layer: 0
  m_Name: SubsurfaceCamera
  m_TagString: Untagged
  m_Icon: {fileID: 0}
  m_NavMeshLayer: 0
  m_StaticEditorFlags: 0
  m_IsActive: 1
--- !u!4 &2075794595
Transform:
  m_ObjectHideFlags: 0
  m_PrefabParentObject: {fileID: 0}
  m_PrefabInternal: {fileID: 0}
  m_GameObject: {fileID: 2075794594}
  m_LocalRotation: {x: 0, y: 0, z: 0, w: 1}
  m_LocalPosition: {x: 0, y: 0, z: 0}
  m_LocalScale: {x: 1, y: 1, z: 1}
  m_Children: []
  m_Father: {fileID: 1214707426}
  m_RootOrder: 3
  m_LocalEulerAnglesHint: {x: 0, y: 0, z: 0}
--- !u!114 &2075794596
MonoBehaviour:
  m_ObjectHideFlags: 0
  m_PrefabParentObject: {fileID: 0}
  m_PrefabInternal: {fileID: 0}
  m_GameObject: {fileID: 2075794594}
  m_Enabled: 1
  m_EditorHideFlags: 0
  m_Script: {fileID: 11500000, guid: c880d555e4968234c860946eae519142, type: 3}
  m_Name: 
  m_EditorClassIdentifier: 
  m_mainCameraRef: {fileID: 1214707425}
  SubRenderShader: {fileID: 4800000, guid: 13ec3fa07907d524db53d1a72cf6753a, type: 3}
--- !u!124 &2075794597
Behaviour:
  m_ObjectHideFlags: 0
  m_PrefabParentObject: {fileID: 0}
  m_PrefabInternal: {fileID: 0}
  m_GameObject: {fileID: 2075794594}
  m_Enabled: 1
--- !u!20 &2075794598
Camera:
  m_ObjectHideFlags: 0
  m_PrefabParentObject: {fileID: 0}
  m_PrefabInternal: {fileID: 0}
  m_GameObject: {fileID: 2075794594}
  m_Enabled: 0
  serializedVersion: 2
  m_ClearFlags: 1
  m_BackGroundColor: {r: 0.19215687, g: 0.3019608, b: 0.4745098, a: 0}
  m_NormalizedViewPortRect:
    serializedVersion: 2
    x: 0
    y: 0
    width: 1
    height: 1
  near clip plane: 2
  far clip plane: 7
  field of view: 20
  orthographic: 0
  orthographic size: 5
  m_Depth: 0
  m_CullingMask:
    serializedVersion: 2
    m_Bits: 4294967295
  m_RenderingPath: -1
  m_TargetTexture: {fileID: 8400000, guid: a7be23cb35798884ca16c1e3aff367e8, type: 2}
  m_TargetDisplay: 0
  m_TargetEye: 3
  m_HDR: 1
  m_AllowMSAA: 1
  m_AllowDynamicResolution: 0
  m_ForceIntoRT: 0
  m_OcclusionCulling: 1
  m_StereoConvergence: 10
  m_StereoSeparation: 0.022
--- !u!1 &2121243076
GameObject:
  m_ObjectHideFlags: 0
  m_PrefabParentObject: {fileID: 0}
  m_PrefabInternal: {fileID: 0}
  serializedVersion: 5
  m_Component:
  - component: {fileID: 2121243077}
  m_Layer: 0
  m_Name: White Gems
  m_TagString: Untagged
  m_Icon: {fileID: 0}
  m_NavMeshLayer: 0
  m_StaticEditorFlags: 0
  m_IsActive: 1
--- !u!4 &2121243077
Transform:
  m_ObjectHideFlags: 0
  m_PrefabParentObject: {fileID: 0}
  m_PrefabInternal: {fileID: 0}
  m_GameObject: {fileID: 2121243076}
  m_LocalRotation: {x: 0, y: 0.10452847, z: 0, w: 0.9945219}
  m_LocalPosition: {x: 0, y: 0, z: -0.06}
  m_LocalScale: {x: 1, y: 1, z: 1}
  m_Children:
  - {fileID: 770102367}
  - {fileID: 2038584608}
  - {fileID: 1121215305}
  - {fileID: 1808485576}
  m_Father: {fileID: 906471583}
  m_RootOrder: 0
  m_LocalEulerAnglesHint: {x: 0, y: 0, z: 0}
